Adding offset event: 26.109	26.461	OrchestrateGui1	unordered-offset:U:E	OrchestrateGui_UNORDERED_OFFSET	{}	351ms
Adding consecutive offset event: 23.631	23.939	OrchestrateGui2	consecutive-agent-offset:transcription-segment:transcription-segment	OrchestrateGui_CONSECUTIVE_OFFSET	{}	307ms
Resulting extended event set:22.731	22.771	1324124	U	PARTIAL	{asrmode = INCREMENTAL, asr_message_latency = 0.004, audio_duration = 0.04, inp_frames = 10, asr_time = 1430173317617, vadsegmentstarttime = 1.8958124999999768, source = ASR, vadsegmentid = vadseg00001, priority = 15, streamid = 1545, num_frames = 4, asr_total_latency = 4.0E-6, src = ASR, dbwritetime = 22.846}	
  22.738	23.628	1324193	U	PARTIAL	{asrmode = INCREMENTAL, asr_message_latency = 0.026, audio_duration = 0.89, inp_frames = 94.95625, asr_time = 1430173318475, vadsegmentstarttime = 1.8958124999999768, source = ASR, vadsegmentid = vadseg00001, priority = 15, streamid = 1545, num_frames = 89, asr_total_latency = 0.8360259999999999, src = ASR, dbwritetime = 24.19}	WHICH
  22.741	23.631	1324195	U	transcription-segment	{vadsegmentendtime = 2.84537499999999, asrmode = INCREMENTAL, asr_message_latency = 0.002, audio_duration = 0.89, inp_frames = 94.95625, asr_time = 1430173318477, vadsegmentstarttime = 1.8958124999999768, source = ASR, vadsegmentid = vadseg00001, priority = 14, streamid = 1545, num_frames = 89, src = ASR, asr_total_latency = 0.8620019999999999, dbwritetime = 24.225}	WHICH
  22.762	23.602	1324189	U	PARTIAL	{asrmode = INCREMENTAL, asr_message_latency = 0.049, audio_duration = 0.84, inp_frames = 90, asr_time = 1430173318449, vadsegmentstarttime = 1.8958124999999768, source = ASR, vadsegmentid = vadseg00001, priority = 15, streamid = 1545, num_frames = 84, asr_total_latency = 0.787049, src = ASR, dbwritetime = 24.123}	WHICH
  22.766	22.766	1324122	U	VADSTART	{vadsegmentstarttime = 1.8958124999999768, vadsegmentid = vadseg00001, source = VAD, priority = 20, streamid = 1545, dbwritetime = 22.806}	
  22.776	22.916	1324132	U	PARTIAL	{asrmode = INCREMENTAL, asr_message_latency = 0.146, audio_duration = 0.14, inp_frames = 20, asr_time = 1430173317763, vadsegmentstarttime = 1.8958124999999768, source = ASR, vadsegmentid = vadseg00001, priority = 15, streamid = 1545, num_frames = 14, asr_total_latency = 0.0041459999999999995, src = ASR, dbwritetime = 23.006}	
  22.782	22.782	1324128	U	STATEMENT_PARTIAL	{id = 29911, source = HUDAN, priority = 10, streamid = 1545, dbwritetime = 22.924}	
  22.813000000000002	23.053	1324141	U	PARTIAL	{asrmode = INCREMENTAL, asr_message_latency = 0.136, audio_duration = 0.24, inp_frames = 30, asr_time = 1430173317899, vadsegmentstarttime = 1.8958124999999768, source = ASR, vadsegmentid = vadseg00001, priority = 15, streamid = 1545, num_frames = 24, asr_total_latency = 0.150136, src = ASR, dbwritetime = 23.178}	
  22.813000000000002	23.553	1324179	U	PARTIAL	{asrmode = INCREMENTAL, asr_message_latency = 0.041, audio_duration = 0.74, inp_frames = 80, asr_time = 1430173318400, vadsegmentstarttime = 1.8958124999999768, source = ASR, vadsegmentid = vadseg00001, priority = 15, streamid = 1545, num_frames = 74, asr_total_latency = 0.7460410000000001, src = ASR, dbwritetime = 23.953}	WHICH
  22.871	23.511	1324174	U	PARTIAL	{asrmode = INCREMENTAL, asr_message_latency = 0.056, audio_duration = 0.64, inp_frames = 70, asr_time = 1430173318358, vadsegmentstarttime = 1.8958124999999768, source = ASR, vadsegmentid = vadseg00001, priority = 15, streamid = 1545, num_frames = 64, asr_total_latency = 0.689056, src = ASR, dbwritetime = 23.868}	WHICH
  22.892	23.232	1324148	U	PARTIAL	{asrmode = INCREMENTAL, asr_message_latency = 0.178, audio_duration = 0.34, inp_frames = 40, asr_time = 1430173318078, vadsegmentstarttime = 1.8958124999999768, source = ASR, vadsegmentid = vadseg00001, priority = 15, streamid = 1545, num_frames = 34, asr_total_latency = 0.287178, src = ASR, dbwritetime = 23.312}	
  22.915	23.455	1324166	U	PARTIAL	{asrmode = INCREMENTAL, asr_message_latency = 0.086, audio_duration = 0.54, inp_frames = 60, asr_time = 1430173318301, vadsegmentstarttime = 1.8958124999999768, source = ASR, vadsegmentid = vadseg00001, priority = 15, streamid = 1545, num_frames = 54, asr_total_latency = 0.602086, src = ASR, dbwritetime = 23.669}	
  22.921	23.361	1324157	U	PARTIAL	{asrmode = INCREMENTAL, asr_message_latency = 0.129, audio_duration = 0.44, inp_frames = 50, asr_time = 1430173318208, vadsegmentstarttime = 1.8958124999999768, source = ASR, vadsegmentid = vadseg00001, priority = 15, streamid = 1545, num_frames = 44, asr_total_latency = 0.466129, src = ASR, dbwritetime = 23.498}	
  22.932	22.932	1324135	U	STATEMENT_PARTIAL	{id = 29913, source = HUDAN, priority = 10, streamid = 1545, dbwritetime = 23.063}	
  23.074	23.074	1324144	U	STATEMENT_PARTIAL	{id = 29915, source = HUDAN, priority = 10, streamid = 1545, dbwritetime = 23.237}	
  23.244	23.244	1324153	U	STATEMENT_PARTIAL	{id = 29917, source = HUDAN, priority = 10, streamid = 1545, dbwritetime = 23.415}	
  23.347	23.347	1324162	game	GAMETIME	{id = 29920, toignore = false, source = GAME, priority = 30, userid = U, version = medinc_pps, dbwritetime = 23.589}	47
  23.364	23.364	1324160	U	STATEMENT_PARTIAL	{id = 29919, source = HUDAN, priority = 10, streamid = 1545, dbwritetime = 23.552}	
  23.378	24.518	1324281	U	PARTIAL	{asrmode = INCREMENTAL, asr_message_latency = 0.047, audio_duration = 1.1400000000000001, inp_frames = 120, asr_time = 1430173319365, vadsegmentstarttime = 2.675312500000018, source = ASR, vadsegmentid = vadseg00002, priority = 15, streamid = 1545, num_frames = 114, asr_total_latency = 0.646047, src = ASR, dbwritetime = 25.802}	A CAR FALLING
  23.391000000000002	24.431	1324274	U	PARTIAL	{asrmode = INCREMENTAL, asr_message_latency = 0.027, audio_duration = 1.04, inp_frames = 110, asr_time = 1430173319277, vadsegmentstarttime = 2.675312500000018, source = ASR, vadsegmentid = vadseg00002, priority = 15, streamid = 1545, num_frames = 104, asr_total_latency = 0.618027, src = ASR, dbwritetime = 25.675}	A CAR FALLING
  23.405	24.145	1324253	U	PARTIAL	{asrmode = INCREMENTAL, asr_message_latency = 0.04, audio_duration = 0.74, inp_frames = 80, asr_time = 1430173318992, vadsegmentstarttime = 2.675312500000018, source = ASR, vadsegmentid = vadseg00002, priority = 15, streamid = 1545, num_frames = 74, asr_total_latency = 0.38004000000000004, src = ASR, dbwritetime = 25.297}	FUCK ARE
  23.406	23.746	1324215	U	PARTIAL	{asrmode = INCREMENTAL, asr_message_latency = 0.039, audio_duration = 0.34, inp_frames = 40, asr_time = 1430173318593, vadsegmentstarttime = 2.675312500000018, source = ASR, vadsegmentid = vadseg00002, priority = 15, streamid = 1545, num_frames = 34, asr_total_latency = 0.076039, src = ASR, dbwritetime = 24.581}	
  23.412000000000003	23.952	1324239	U	PARTIAL	{asrmode = INCREMENTAL, asr_message_latency = 0.09, audio_duration = 0.54, inp_frames = 60, asr_time = 1430173318798, vadsegmentstarttime = 2.675312500000018, source = ASR, vadsegmentid = vadseg00002, priority = 15, streamid = 1545, num_frames = 54, asr_total_latency = 0.18709, src = ASR, dbwritetime = 25.031}	FUCK
  23.413	23.853	1324232	U	PARTIAL	{asrmode = INCREMENTAL, asr_message_latency = 0.072, audio_duration = 0.44, inp_frames = 50, asr_time = 1430173318700, vadsegmentstarttime = 2.675312500000018, source = ASR, vadsegmentid = vadseg00002, priority = 15, streamid = 1545, num_frames = 44, asr_total_latency = 0.11507200000000001, src = ASR, dbwritetime = 24.899}	OKAY
  23.415	24.355	1324265	U	PARTIAL	{asrmode = INCREMENTAL, asr_message_latency = 0.06, audio_duration = 0.9400000000000001, inp_frames = 100, asr_time = 1430173319202, vadsegmentstarttime = 2.675312500000018, source = ASR, vadsegmentid = vadseg00002, priority = 15, streamid = 1545, num_frames = 94, asr_total_latency = 0.54906, src = ASR, dbwritetime = 25.521}	A CAR FALLING
  23.416	24.056	1324244	U	PARTIAL	{asrmode = INCREMENTAL, asr_message_latency = 0.09, audio_duration = 0.64, inp_frames = 70, asr_time = 1430173318903, vadsegmentstarttime = 2.675312500000018, source = ASR, vadsegmentid = vadseg00002, priority = 15, streamid = 1545, num_frames = 64, asr_total_latency = 0.27808999999999995, src = ASR, dbwritetime = 25.12}	A COW
  23.444	24.284	1324260	U	PARTIAL	{asrmode = INCREMENTAL, asr_message_latency = 0.118, audio_duration = 0.84, inp_frames = 90, asr_time = 1430173319131, vadsegmentstarttime = 2.675312500000018, source = ASR, vadsegmentid = vadseg00002, priority = 15, streamid = 1545, num_frames = 84, asr_total_latency = 0.421118, src = ASR, dbwritetime = 25.437}	FUCK ARE
  23.459	23.459	1324169	U	STATEMENT_PARTIAL	{id = 29922, source = HUDAN, priority = 10, streamid = 1545, dbwritetime = 23.77}	
  23.463	23.463	1324170	U	VADEND	{vadsegmentendtime = 2.84537499999999, vadsegmentid = vadseg00001, source = VAD, priority = 20, streamid = 1545, dbwritetime = 23.786}	
  23.467000000000002	23.707	1324212	U	PARTIAL	{asrmode = INCREMENTAL, asr_message_latency = 0.026, audio_duration = 0.24, inp_frames = 30, asr_time = 1430173318554, vadsegmentstarttime = 2.675312500000018, source = ASR, vadsegmentid = vadseg00002, priority = 15, streamid = 1545, num_frames = 24, asr_total_latency = 0.050026, src = ASR, dbwritetime = 24.529}	
  23.492	24.732	1324290	U	PARTIAL	{asrmode = INCREMENTAL, asr_message_latency = 0.126, audio_duration = 1.24, inp_frames = 130, asr_time = 1430173319579, vadsegmentstarttime = 2.675312500000018, source = ASR, vadsegmentid = vadseg00002, priority = 15, streamid = 1545, num_frames = 124, asr_total_latency = 0.703126, src = ASR, dbwritetime = 25.978}	A CAR FALLING
  23.509	24.949	1324304	U	PARTIAL	{asrmode = INCREMENTAL, asr_message_latency = 0.058, audio_duration = 1.44, inp_frames = 150, asr_time = 1430173319795, vadsegmentstarttime = 2.675312500000018, source = ASR, vadsegmentid = vadseg00002, priority = 15, streamid = 1545, num_frames = 144, asr_total_latency = 0.987058, src = ASR, dbwritetime = 26.22}	A CAR FALLING INTO WATER
  23.527	23.527	1324177	U	STATEMENT_PARTIAL	{id = 29925, source = HUDAN, priority = 10, streamid = 1545, dbwritetime = 23.919}	WHICH
  23.541	23.681	1324210	U	PARTIAL	{asrmode = INCREMENTAL, asr_message_latency = 0.019, audio_duration = 0.14, inp_frames = 20, asr_time = 1430173318528, vadsegmentstarttime = 2.675312500000018, source = ASR, vadsegmentid = vadseg00002, priority = 15, streamid = 1545, num_frames = 14, asr_total_latency = 0.031018999999999998, src = ASR, dbwritetime = 24.494}	
  23.542	25.082	1324313	U	PARTIAL	{asrmode = INCREMENTAL, asr_message_latency = 0.132, audio_duration = 1.54, inp_frames = 160, asr_time = 1430173319928, vadsegmentstarttime = 2.675312500000018, source = ASR, vadsegmentid = vadseg00002, priority = 15, streamid = 1545, num_frames = 154, asr_total_latency = 1.046132, src = ASR, dbwritetime = 26.391}	A CAR FALLING INTO WATER
  23.55	24.89	1324299	U	PARTIAL	{asrmode = INCREMENTAL, asr_message_latency = 0.148, audio_duration = 1.34, inp_frames = 140, asr_time = 1430173319736, vadsegmentstarttime = 2.675312500000018, source = ASR, vadsegmentid = vadseg00002, priority = 15, streamid = 1545, num_frames = 134, asr_total_latency = 0.838148, src = ASR, dbwritetime = 26.118}	A CAR FALLING INTO WATER
  23.564	23.564	1324182	U	STATEMENT_PARTIAL	{id = 29927, source = HUDAN, priority = 10, streamid = 1545, dbwritetime = 24.002}	WHICH
  23.573	25.213	1324320	U	PARTIAL	{asrmode = INCREMENTAL, asr_message_latency = 0.12, audio_duration = 1.6400000000000001, inp_frames = 170, asr_time = 1430173320060, vadsegmentstarttime = 2.675312500000018, source = ASR, vadsegmentid = vadseg00002, priority = 15, streamid = 1545, num_frames = 164, asr_total_latency = 1.1901199999999998, src = ASR, dbwritetime = 26.528}	A CAR FALLING INTO WATER
  23.584	23.584	1324186	U	VADSTART	{vadsegmentstarttime = 2.675312500000018, vadsegmentid = vadseg00002, source = VAD, priority = 20, streamid = 1545, dbwritetime = 24.074}	
  23.602	25.342	1324327	U	PARTIAL	{asrmode = INCREMENTAL, asr_message_latency = 0.129, audio_duration = 1.74, inp_frames = 180, asr_time = 1430173320189, vadsegmentstarttime = 2.675312500000018, source = ASR, vadsegmentid = vadseg00002, priority = 15, streamid = 1545, num_frames = 174, asr_total_latency = 1.3101289999999999, src = ASR, dbwritetime = 26.643}	A CAR FALLING INTO WATER
  23.621000000000002	23.661	1324204	U	PARTIAL	{asrmode = INCREMENTAL, asr_message_latency = 0.03, audio_duration = 0.04, inp_frames = 10, asr_time = 1430173318508, vadsegmentstarttime = 2.675312500000018, source = ASR, vadsegmentid = vadseg00002, priority = 15, streamid = 1545, num_frames = 4, asr_total_latency = 2.9999999999999997E-5, src = ASR, dbwritetime = 24.393}	
  23.625	23.625	1324192	U	STATEMENT_PARTIAL	{id = 29930, source = HUDAN, priority = 10, streamid = 1545, dbwritetime = 24.172}	WHICH
  23.631	23.939	OrchestrateGui2	consecutive-agent-offset:transcription-segment:transcription-segment	OrchestrateGui_CONSECUTIVE_OFFSET	{}	307ms
  23.647	23.647	1324202	U	STATEMENT_PARTIAL	{id = 29933, source = HUDAN, priority = 10, streamid = 1545, dbwritetime = 24.361}	WHICH
  23.648	23.648	1324203	U	STATEMENT_FINAL	{id = 29934, source = HUDAN, priority = 10, streamid = 1545, dbwritetime = 24.379}	WHICH
  23.651	25.491	1324340	U	PARTIAL	{asrmode = INCREMENTAL, asr_message_latency = 0.149, audio_duration = 1.84, inp_frames = 190, asr_time = 1430173320338, vadsegmentstarttime = 2.675312500000018, source = ASR, vadsegmentid = vadseg00002, priority = 15, streamid = 1545, num_frames = 184, asr_total_latency = 1.4391489999999998, src = ASR, dbwritetime = 26.886}	A CAR FALLING INTO WATER
  23.668	23.668	1324209	U	STATEMENT_PARTIAL	{id = 29936, source = HUDAN, priority = 10, streamid = 1545, dbwritetime = 24.476}	WHICH
  23.688	25.628	1324348	U	PARTIAL	{asrmode = INCREMENTAL, asr_message_latency = 0.12, audio_duration = 1.94, inp_frames = 200, asr_time = 1430173320475, vadsegmentstarttime = 2.675312500000018, source = ASR, vadsegmentid = vadseg00002, priority = 15, streamid = 1545, num_frames = 194, asr_total_latency = 1.6051199999999999, src = ASR, dbwritetime = 27.01}	A CAR FALLING INTO WATER
  23.716	23.716	1324214	E	PICTURESELECTION	{id = 29939, source = MPaG, priority = 0, userid = U, dbwritetime = 24.564}	415_413
  23.761	23.761	1324224	U	STATEMENT_PARTIAL	{id = 29941, source = HUDAN, priority = 10, streamid = 1545, dbwritetime = 24.753}	WHICH
  23.761	23.761	1324225	U	STATEMENT_PARTIAL	{id = 29942, source = HUDAN, priority = 10, streamid = 1545, dbwritetime = 24.771}	WHICH
  23.762	23.762	1324226	U	STATEMENT_PARTIAL	{id = 29943, source = HUDAN, priority = 10, streamid = 1545, dbwritetime = 24.788}	WHICH
  23.802	25.842	1324357	U	PARTIAL	{asrmode = INCREMENTAL, asr_message_latency = 0.204, audio_duration = 2.04, inp_frames = 210, asr_time = 1430173320689, vadsegmentstarttime = 2.675312500000018, source = ASR, vadsegmentid = vadseg00002, priority = 15, streamid = 1545, num_frames = 204, asr_total_latency = 1.735204, src = ASR, dbwritetime = 27.161}	A CAR FALLING INTO WATER
  23.857999999999997	26.028	1324370	U	PARTIAL	{asrmode = INCREMENTAL, asr_message_latency = 0.023, audio_duration = 2.17, inp_frames = 222.88125, asr_time = 1430173320875, vadsegmentstarttime = 2.675312500000018, source = ASR, vadsegmentid = vadseg00002, priority = 15, streamid = 1545, num_frames = 217, asr_total_latency = 2.102023, src = ASR, dbwritetime = 27.518}	A CAR FALLING INTO WATER
  23.865	26.005	1324366	U	PARTIAL	{asrmode = INCREMENTAL, asr_message_latency = 0.154, audio_duration = 2.14, inp_frames = 220, asr_time = 1430173320852, vadsegmentstarttime = 2.675312500000018, source = ASR, vadsegmentid = vadseg00002, priority = 15, streamid = 1545, num_frames = 214, asr_total_latency = 1.948154, src = ASR, dbwritetime = 27.308}	A CAR FALLING INTO WATER
  23.871	23.871	1324235	U	STATEMENT_PARTIAL	{id = 29945, source = HUDAN, priority = 10, streamid = 1545, dbwritetime = 24.957}	WHICH OKAY
  23.939	26.109	1324378	U	transcription-segment	{vadsegmentendtime = 4.904125000000022, asrmode = INCREMENTAL, asr_message_latency = 0.08, audio_duration = 2.17, inp_frames = 222.88125, asr_time = 1430173320955, vadsegmentstarttime = 2.675312500000018, source = ASR, vadsegmentid = vadseg00002, priority = 14, streamid = 1545, num_frames = 217, src = ASR, asr_total_latency = 2.12508, dbwritetime = 27.666}	A CAR FALLING INTO WATER
  23.974	23.974	1324242	U	STATEMENT_PARTIAL	{id = 29947, source = HUDAN, priority = 10, streamid = 1545, dbwritetime = 25.085}	WHICH FUCK
  24.059	24.059	1324247	U	STATEMENT_PARTIAL	{id = 29949, source = HUDAN, priority = 10, streamid = 1545, dbwritetime = 25.173}	WHICH A COW
  24.184	24.184	1324256	U	STATEMENT_PARTIAL	{id = 29951, source = HUDAN, priority = 10, streamid = 1545, dbwritetime = 25.359}	WHICH FUCK ARE
  24.289	24.289	1324263	U	STATEMENT_PARTIAL	{id = 29953, source = HUDAN, priority = 10, streamid = 1545, dbwritetime = 25.493}	WHICH FUCK ARE
  24.348	24.348	1324270	game	GAMETIME	{id = 29955, toignore = false, source = GAME, priority = 30, userid = U, version = medinc_pps, dbwritetime = 25.602}	46
  24.401	24.401	1324271	U	STATEMENT_PARTIAL	{id = 29956, source = HUDAN, priority = 10, streamid = 1545, dbwritetime = 25.619}	WHICH A CAR FALLING
  24.468	24.468	1324279	U	STATEMENT_PARTIAL	{id = 29958, source = HUDAN, priority = 10, streamid = 1545, dbwritetime = 25.767}	WHICH A CAR FALLING
  24.538	24.538	1324284	U	STATEMENT_PARTIAL	{id = 29960, source = HUDAN, priority = 10, streamid = 1545, dbwritetime = 25.86}	WHICH A CAR FALLING
  24.748	24.748	1324293	U	STATEMENT_PARTIAL	{id = 29962, source = HUDAN, priority = 10, streamid = 1545, dbwritetime = 26.021}	WHICH A CAR FALLING
  24.904	24.904	1324302	U	STATEMENT_PARTIAL	{id = 29964, source = HUDAN, priority = 10, streamid = 1545, dbwritetime = 26.171}	WHICH A CAR FALLING INTO WATER
  24.975	24.975	1324309	U	STATEMENT_PARTIAL	{id = 29966, source = HUDAN, priority = 10, streamid = 1545, dbwritetime = 26.321}	WHICH A CAR FALLING INTO WATER
  25.093	25.093	1324316	U	STATEMENT_PARTIAL	{id = 29968, source = HUDAN, priority = 10, streamid = 1545, dbwritetime = 26.45}	WHICH A CAR FALLING INTO WATER
  25.234	25.234	1324323	U	STATEMENT_PARTIAL	{id = 29970, source = HUDAN, priority = 10, streamid = 1545, dbwritetime = 26.584}	WHICH A CAR FALLING INTO WATER
  25.348	25.348	1324333	game	GAMETIME	{id = 29973, toignore = false, source = GAME, priority = 30, userid = U, version = medinc_pps, dbwritetime = 26.747}	45
  25.368	25.368	1324332	U	STATEMENT_PARTIAL	{id = 29972, source = HUDAN, priority = 10, streamid = 1545, dbwritetime = 26.727}	WHICH A CAR FALLING INTO WATER
  25.487	25.487	1324338	U	VADEND	{vadsegmentendtime = 4.904125000000022, vadsegmentid = vadseg00002, source = VAD, priority = 20, streamid = 1545, dbwritetime = 26.853}	
  25.513	25.513	1324344	U	STATEMENT_PARTIAL	{id = 29976, source = HUDAN, priority = 10, streamid = 1545, dbwritetime = 26.943}	WHICH A CAR FALLING INTO WATER
  25.651	25.651	1324351	U	STATEMENT_PARTIAL	{id = 29978, source = HUDAN, priority = 10, streamid = 1545, dbwritetime = 27.069}	WHICH A CAR FALLING INTO WATER
  25.858	25.858	1324360	U	STATEMENT_PARTIAL	{id = 29980, source = HUDAN, priority = 10, streamid = 1545, dbwritetime = 27.208}	WHICH A CAR FALLING INTO WATER
  26.021	26.021	1324369	U	STATEMENT_PARTIAL	{id = 29982, source = HUDAN, priority = 10, streamid = 1545, dbwritetime = 27.504}	WHICH A CAR FALLING INTO WATER
  26.044	26.044	1324374	U	STATEMENT_PARTIAL	{id = 29984, source = HUDAN, priority = 10, streamid = 1545, dbwritetime = 27.596}	WHICH A CAR FALLING INTO WATER
  26.109	26.461	OrchestrateGui1	unordered-offset:U:E	OrchestrateGui_UNORDERED_OFFSET	{}	351ms
  26.124	26.124	1324381	U	STATEMENT_FINAL	{id = 29986, source = HUDAN, priority = 10, streamid = 1545, dbwritetime = 27.725}	WHICH A CAR FALLING INTO WATER
  26.148	26.148	1324383	E	PICTURESELECTION	{id = 29987, source = MPaG, priority = 0, userid = U, dbwritetime = 27.76}	413_413
  26.148	26.148	1324384	E	TTSSTATEMENT	{id = 29988, source = MPaG, priority = 18, userid = U, dbwritetime = 27.777}	Got it!
  26.346	26.346	1324393	game	GAMETIME	{id = 29990, toignore = false, source = GAME, priority = 30, userid = U, version = medinc_pps, dbwritetime = 27.953}	44
  26.461	26.967	1324387	E	transcription-segment	{id = 29989, source = TTS, priority = 19, userid = U, dbwritetime = 27.834}	Got it!
  27.247	27.247	1324413	game	SCORE	{id = 29991, toignore = false, source = GAME, priority = 1, userid = U, version = medinc_pps, dbwritetime = 28.314}	0.24
Setting start time to 22.5
computeLayoutParameters
Minimum height of U is 25
Minimum height of E is 25
Minimum height of overlap is 25
Minimum height of pause is 25
Minimum height of switch is 25
Element label width is 82
Element label height is 25
Row height is 245
Width is 1910
Height is 1050
Number of rows is 3
Row width is 1768
Horizontal pixels/second is 142
Seconds/row is 12.450704225352112
Setting start time to 22.5
emitted snapshot to /enc/home/academe/common/sandbox/ext/inc/trunk/studies/papers/sigdial2015/figures/orchestrated/./evtr_medinc-keyframe-00001.png
emitted snapshot to /enc/home/academe/common/sandbox/ext/inc/trunk/studies/papers/sigdial2015/figures/orchestrated/./evtr_medinc-keyframe-00001.ps
Emitted 1 keyframes: beginTimeS=22.5 endTimeS=27.247 durationS=4.747 beginTime=00:00:22.500  endTime=00:00:27.247  duration=00:00:04.747  secondsPerKeyFrame=37.352112676056336 keyFramesPerSecond=0.026772247360482657
