Adding overlap event: 31.838	32.344	OrchestrateGui1	overlap:U:E	OrchestrateGui_OVERLAP	{}	506ms
Resulting extended event set:30.084000000000003	31.824	1210710	U	PARTIAL	{asrmode = INCREMENTAL, asr_message_latency = 0.054, audio_duration = 1.74, inp_frames = 180, asr_time = 1430048471111, vadsegmentstarttime = 1.1708749999999668, source = ASR, vadsegmentid = vadseg00002, priority = 15, streamid = 1263, num_frames = 174, asr_total_latency = 1.6860540000000002, src = ASR, dbwritetime = 34.883}	CAR GOING ON A
  30.101	30.101	1210602	U	STATEMENT_PARTIAL	{id = 28926, source = HUDAN, priority = 10, streamid = 1263, dbwritetime = 32.991}	
  30.108	30.948	1210657	U	PARTIAL	{asrmode = INCREMENTAL, asr_message_latency = 0.202, audio_duration = 0.84, inp_frames = 90, asr_time = 1430048470235, vadsegmentstarttime = 1.1708749999999668, source = ASR, vadsegmentid = vadseg00002, priority = 15, streamid = 1263, num_frames = 84, asr_total_latency = 0.664202, src = ASR, dbwritetime = 34.024}	CAR
  30.127999999999997	32.068	1210736	U	PARTIAL	{asrmode = INCREMENTAL, asr_message_latency = 0.093, audio_duration = 1.94, inp_frames = 200, asr_time = 1430048471355, vadsegmentstarttime = 1.1708749999999668, source = ASR, vadsegmentid = vadseg00002, priority = 15, streamid = 1263, num_frames = 194, asr_total_latency = 1.890093, src = ASR, dbwritetime = 35.343}	CAR GOING ON A CIRCLE
  30.128999999999998	31.769	1210705	U	PARTIAL	{asrmode = INCREMENTAL, asr_message_latency = 0.062, audio_duration = 1.6400000000000001, inp_frames = 170, asr_time = 1430048471056, vadsegmentstarttime = 1.1708749999999668, source = ASR, vadsegmentid = vadseg00002, priority = 15, streamid = 1263, num_frames = 164, asr_total_latency = 1.623062, src = ASR, dbwritetime = 34.796}	CAR GOING ON A
  30.131	32.171	1210753	U	PARTIAL	{asrmode = INCREMENTAL, asr_message_latency = 0.103, audio_duration = 2.04, inp_frames = 210, asr_time = 1430048471458, vadsegmentstarttime = 1.1708749999999668, source = ASR, vadsegmentid = vadseg00002, priority = 15, streamid = 1263, num_frames = 204, asr_total_latency = 1.983103, src = ASR, dbwritetime = 35.662}	CAR GOING ALRIGHT SO ONE
  30.134	31.974	1210729	U	PARTIAL	{asrmode = INCREMENTAL, asr_message_latency = 0.149, audio_duration = 1.84, inp_frames = 190, asr_time = 1430048471261, vadsegmentstarttime = 1.1708749999999668, source = ASR, vadsegmentid = vadseg00002, priority = 15, streamid = 1263, num_frames = 184, asr_total_latency = 1.7411489999999998, src = ASR, dbwritetime = 35.21}	CAR GOING ON A CIRCLE
  30.134999999999998	32.375	1210765	U	PARTIAL	{asrmode = INCREMENTAL, asr_message_latency = 0.089, audio_duration = 2.24, inp_frames = 230, asr_time = 1430048471661, vadsegmentstarttime = 1.1708749999999668, source = ASR, vadsegmentid = vadseg00002, priority = 15, streamid = 1263, num_frames = 224, asr_total_latency = 2.2000889999999997, src = ASR, dbwritetime = 35.883}	CAR GOING OFF INTO WATER
  30.144	31.084	1210662	U	PARTIAL	{asrmode = INCREMENTAL, asr_message_latency = 0.135, audio_duration = 0.9400000000000001, inp_frames = 100, asr_time = 1430048470371, vadsegmentstarttime = 1.1708749999999668, source = ASR, vadsegmentid = vadseg00002, priority = 15, streamid = 1263, num_frames = 94, asr_total_latency = 0.866135, src = ASR, dbwritetime = 34.11}	CAR
  30.144	32.284	1210760	U	PARTIAL	{asrmode = INCREMENTAL, asr_message_latency = 0.1, audio_duration = 2.14, inp_frames = 220, asr_time = 1430048471571, vadsegmentstarttime = 1.1708749999999668, source = ASR, vadsegmentid = vadseg00002, priority = 15, streamid = 1263, num_frames = 214, asr_total_latency = 2.0991, src = ASR, dbwritetime = 35.79}	CAR GOING OFF INTO WATER
  30.151	31.691	1210700	U	PARTIAL	{asrmode = INCREMENTAL, asr_message_latency = 0.065, audio_duration = 1.54, inp_frames = 160, asr_time = 1430048470978, vadsegmentstarttime = 1.1708749999999668, source = ASR, vadsegmentid = vadseg00002, priority = 15, streamid = 1263, num_frames = 154, asr_total_latency = 1.542065, src = ASR, dbwritetime = 34.715}	CAR GOING ON A
  30.186	31.626	1210690	U	PARTIAL	{asrmode = INCREMENTAL, asr_message_latency = 0.03, audio_duration = 1.44, inp_frames = 150, asr_time = 1430048470913, vadsegmentstarttime = 1.1708749999999668, source = ASR, vadsegmentid = vadseg00002, priority = 15, streamid = 1263, num_frames = 144, asr_total_latency = 1.51203, src = ASR, dbwritetime = 34.554}	CAR GOING OFF
  30.208000000000002	32.648	1210775	U	PARTIAL	{asrmode = INCREMENTAL, asr_message_latency = 0.069, audio_duration = 2.44, inp_frames = 250, asr_time = 1430048471934, vadsegmentstarttime = 1.1708749999999668, source = ASR, vadsegmentid = vadseg00002, priority = 15, streamid = 1263, num_frames = 244, asr_total_latency = 2.4930689999999998, src = ASR, dbwritetime = 36.064}	CAR GOING OFF INTO WATER
  30.209000000000003	32.749	1210780	U	PARTIAL	{asrmode = INCREMENTAL, asr_message_latency = 0.101, audio_duration = 2.54, inp_frames = 261, asr_time = 1430048472036, vadsegmentstarttime = 1.1708749999999668, source = ASR, vadsegmentid = vadseg00002, priority = 15, streamid = 1263, num_frames = 254, asr_total_latency = 2.563101, src = ASR, dbwritetime = 36.156}	CAR GOING OFF INTO WATER
  30.211	30.211	1210609	U	STATEMENT_PARTIAL	{id = 28928, source = HUDAN, priority = 10, streamid = 1263, dbwritetime = 33.121}	
  30.211	30.211	1210611	game	GAMETIME	{id = 28929, toignore = false, source = GAME, priority = 30, userid = U, version = inc_pps, dbwritetime = 33.158}	38
  30.224	32.774	1210785	U	PARTIAL	{asrmode = INCREMENTAL, asr_message_latency = 0.126, audio_duration = 2.5500000000000003, inp_frames = 261, asr_time = 1430048472061, vadsegmentstarttime = 1.1708749999999668, source = ASR, vadsegmentid = vadseg00002, priority = 15, streamid = 1263, num_frames = 255, asr_total_latency = 2.563126, src = ASR, dbwritetime = 36.257}	CAR GOING OFF INTO WATER
  30.238000000000003	32.578	1210770	U	PARTIAL	{asrmode = INCREMENTAL, asr_message_latency = 0.203, audio_duration = 2.34, inp_frames = 240, asr_time = 1430048471865, vadsegmentstarttime = 1.1708749999999668, source = ASR, vadsegmentid = vadseg00002, priority = 15, streamid = 1263, num_frames = 234, asr_total_latency = 2.290203, src = ASR, dbwritetime = 35.972}	CAR GOING OFF INTO WATER
  30.256	31.596	1210687	U	PARTIAL	{asrmode = INCREMENTAL, asr_message_latency = 0.039, audio_duration = 1.34, inp_frames = 140, asr_time = 1430048470882, vadsegmentstarttime = 1.1708749999999668, source = ASR, vadsegmentid = vadseg00002, priority = 15, streamid = 1263, num_frames = 134, asr_total_latency = 1.472039, src = ASR, dbwritetime = 34.51}	CAR GOING ON
  30.258	31.298	1210669	U	PARTIAL	{asrmode = INCREMENTAL, asr_message_latency = 0.212, audio_duration = 1.04, inp_frames = 110, asr_time = 1430048470585, vadsegmentstarttime = 1.1708749999999668, source = ASR, vadsegmentid = vadseg00002, priority = 15, streamid = 1263, num_frames = 104, asr_total_latency = 1.003212, src = ASR, dbwritetime = 34.238}	CAR GOING
  30.258999999999997	32.809	1210789	U	transcription-segment	{vadsegmentendtime = 3.7808749999999804, asrmode = INCREMENTAL, asr_message_latency = 0.032, audio_duration = 2.5500000000000003, inp_frames = 261, asr_time = 1430048472094, vadsegmentstarttime = 1.1708749999999668, source = ASR, vadsegmentid = vadseg00002, priority = 14, streamid = 1263, num_frames = 255, src = ASR, asr_total_latency = 2.690032, dbwritetime = 36.33}	CAR GOING OFF INTO WATER
  30.288	30.288	1210618	U	STATEMENT_PARTIAL	{id = 28931, source = HUDAN, priority = 10, streamid = 1263, dbwritetime = 33.295}	
  30.316000000000003	31.556	1210679	U	PARTIAL	{asrmode = INCREMENTAL, asr_message_latency = 0.05, audio_duration = 1.24, inp_frames = 130, asr_time = 1430048470842, vadsegmentstarttime = 1.1708749999999668, source = ASR, vadsegmentid = vadseg00002, priority = 15, streamid = 1263, num_frames = 124, asr_total_latency = 1.42105, src = ASR, dbwritetime = 34.39}	CAR GOING ON
  30.364	31.504	1210674	U	PARTIAL	{asrmode = INCREMENTAL, asr_message_latency = 0.205, audio_duration = 1.1400000000000001, inp_frames = 120, asr_time = 1430048470791, vadsegmentstarttime = 1.1708749999999668, source = ASR, vadsegmentid = vadseg00002, priority = 15, streamid = 1263, num_frames = 114, asr_total_latency = 1.2152049999999999, src = ASR, dbwritetime = 34.316}	CAR GOING
  30.415	30.415	1210625	U	STATEMENT_PARTIAL	{id = 28933, source = HUDAN, priority = 10, streamid = 1263, dbwritetime = 33.426}	
  30.46	30.46	1210632	U	STATEMENT_PARTIAL	{id = 28935, source = HUDAN, priority = 10, streamid = 1263, dbwritetime = 33.558}	CAR
  30.492	30.492	1210636	E	PICTURESELECTION	{id = 28937, source = MPaG, priority = 0, userid = U, dbwritetime = 33.632}	413_413
  30.492	30.492	1210637	E	TTSSTATEMENT	{id = 28938, source = MPaG, priority = 18, userid = U, dbwritetime = 33.65}	Got it!
  30.514	30.514	1210642	U	STATEMENT_PARTIAL	{id = 28940, source = HUDAN, priority = 10, streamid = 1263, dbwritetime = 33.741}	CAR
  30.614	30.614	1210650	U	STATEMENT_PARTIAL	{id = 28942, source = HUDAN, priority = 10, streamid = 1263, dbwritetime = 33.889}	CAR
  30.754	30.754	1210655	U	STATEMENT_PARTIAL	{id = 28944, source = HUDAN, priority = 10, streamid = 1263, dbwritetime = 33.986}	CAR
  30.964	30.964	1210660	U	STATEMENT_PARTIAL	{id = 28946, source = HUDAN, priority = 10, streamid = 1263, dbwritetime = 34.076}	CAR
  31.1	31.1	1210665	U	STATEMENT_PARTIAL	{id = 28948, source = HUDAN, priority = 10, streamid = 1263, dbwritetime = 34.165}	CAR
  31.211	31.211	1210667	game	GAMETIME	{id = 28949, toignore = false, source = GAME, priority = 30, userid = U, version = inc_pps, dbwritetime = 34.206}	37
  31.32	31.32	1210672	U	STATEMENT_PARTIAL	{id = 28951, source = HUDAN, priority = 10, streamid = 1263, dbwritetime = 34.284}	CAR GOING
  31.511	31.511	1210677	U	STATEMENT_PARTIAL	{id = 28953, source = HUDAN, priority = 10, streamid = 1263, dbwritetime = 34.36}	CAR GOING
  31.556	31.556	1210682	U	VADEND	{vadsegmentendtime = 3.7808749999999804, vadsegmentid = vadseg00002, source = VAD, priority = 20, streamid = 1263, dbwritetime = 34.435}	
  31.565	31.565	1210685	U	STATEMENT_PARTIAL	{id = 28956, source = HUDAN, priority = 10, streamid = 1263, dbwritetime = 34.481}	CAR GOING ON
  31.626	31.626	1210692	U	VADSTART	{vadsegmentstarttime = 5.050874999999962, vadsegmentid = vadseg00003, source = VAD, priority = 20, streamid = 1263, dbwritetime = 34.583}	
  31.644	31.644	1210696	U	STATEMENT_PARTIAL	{id = 28960, source = HUDAN, priority = 10, streamid = 1263, dbwritetime = 34.646}	CAR GOING ON
  31.644	31.644	1210698	U	STATEMENT_PARTIAL	{id = 28961, source = HUDAN, priority = 10, streamid = 1263, dbwritetime = 34.68}	CAR GOING OFF
  31.697	31.697	1210703	U	STATEMENT_PARTIAL	{id = 28963, source = HUDAN, priority = 10, streamid = 1263, dbwritetime = 34.764}	CAR GOING ON A
  31.773	31.773	1210708	U	STATEMENT_PARTIAL	{id = 28965, source = HUDAN, priority = 10, streamid = 1263, dbwritetime = 34.849}	CAR GOING ON A
  31.829	31.829	1210713	U	STATEMENT_PARTIAL	{id = 28967, source = HUDAN, priority = 10, streamid = 1263, dbwritetime = 34.932}	CAR GOING ON A
  31.838	32.344	1210639	E	transcription-segment	{id = 28939, source = TTS, priority = 19, userid = U, dbwritetime = 33.687}	Got it
  31.838	32.344	OrchestrateGui1	overlap:U:E	OrchestrateGui_OVERLAP	{}	506ms
Setting start time to 30.084000000000003
computeLayoutParameters
Minimum height of U is 25
Minimum height of E is 25
Minimum height of overlap is 25
Minimum height of pause is 25
Minimum height of switch is 25
Element label width is 82
Element label height is 25
Row height is 245
Width is 1910
Height is 1050
Number of rows is 3
Row width is 1768
Horizontal pixels/second is 125
Seconds/row is 14.144
Setting start time to 30.084000000000003
emitted snapshot to /enc/home/academe/common/sandbox/ext/inc/trunk/studies/papers/sigdial2015/figures/orchestrated/./evtr_inc_excerpt-keyframe-00001.png
emitted snapshot to /enc/home/academe/common/sandbox/ext/inc/trunk/studies/papers/sigdial2015/figures/orchestrated/./evtr_inc_excerpt-keyframe-00001.ps
Emitted 1 keyframes: beginTimeS=30.084000000000003 endTimeS=32.809 durationS=2.7249999999999943 beginTime=00:00:30.084  endTime=00:00:32.809  duration=00:00:02.724  secondsPerKeyFrame=42.432 keyFramesPerSecond=0.02356711915535445
