\relax 
\citation{selfridge-EtAl:2013:SIGDIAL,hastie-et-al-sigdial-demo:2013,baumann-schlangen:2013:SIGDIAL,dethlefs-hastie-rieser-lemon:2012,selfridge-EtAl:2012:SIGDIAL2012,devault-sagae-traum-dnd2011,skantze-schlangen-eacl-numbers:2009,schlangen-baumann-atterer:2009}
\citation{skantze-schlangen-eacl-numbers:2009}
\citation{skantze-schlangen-eacl-numbers:2009,Aist}
\citation{skantze-hjalmarsson:2010:SIGDIAL}
\citation{gratch-et-al-virtual-rapport:2006}
\citation{schlangen-skantze:dnd2011}
\citation{ward-devault-aaai:2015}
\citation{kim-et-al:interspeech2014,selfridge-EtAl:2012:SIGDIAL2012}
\citation{schlangen-baumann-atterer:2009}
\citation{paetzel-racca-devault:2014,manuvinakurikepair}
\citation{paetzel-racca-devault:2014,manuvinakurikepair}
\citation{manuvinakurikepair}
\citation{paetzel-racca-devault:2014}
\citation{manuvinakurikepair}
\newlabel{rdgimage-game}{{2}{2}}
\newlabel{interface}{{1}{2}}
\newlabel{nlu}{{2}{3}}
\newlabel{human}{{3}{3}}
\newlabel{sec:eve-design}{{4}{3}}
\citation{amr-codec:2008}
\citation{povey-et-al-kaldi:2011}
\citation{platek-jurvcivcek:2014}
\citation{platek-jurvcivcek:2014}
\citation{devault-sagae-traum-dnd2011}
\citation{Hall:2009:WDM}
\newlabel{incrementality}{{3}{4}}
\newlabel{asr}{{4.1}{4}}
\newlabel{policy-rule}{{1}{5}}
\newlabel{eavesdropper-training}{{5}{5}}
\newlabel{sixpoliciesConf}{{1}{6}}
\citation{manuvinakurikepair}
\citation{manuvinakurikepair}
\citation{manuvinakurike:reducing}
\newlabel{offlinresults}{{2}{7}}
\newlabel{sec:results}{{7}{7}}
\citation{skantze-hjalmarsson:2010:SIGDIAL}
\newlabel{fig:scores-and-questions}{{4}{8}}
\bibstyle{acl}
\bibdata{references,devault_references,more_devault_references}
\bibcite{amr-codec:2008}{\citename {3rd Generation Partnership\nobreakspace  {}Project}2008}
\bibcite{Aist}{\citename {Aist \bgroup et al.\egroup }2007}
\bibcite{baumann-schlangen:2013:SIGDIAL}{\citename {Baumann and Schlangen}2013}
\bibcite{dethlefs-hastie-rieser-lemon:2012}{\citename {Dethlefs \bgroup et al.\egroup }2012}
\bibcite{devault-sagae-traum-dnd2011}{\citename {{DeVault} \bgroup et al.\egroup }2011}
\bibcite{gratch-et-al-virtual-rapport:2006}{\citename {Gratch \bgroup et al.\egroup }2006}
\bibcite{Hall:2009:WDM}{\citename {Hall \bgroup et al.\egroup }2009}
\bibcite{hastie-et-al-sigdial-demo:2013}{\citename {Hastie \bgroup et al.\egroup }2013}
\bibcite{kim-et-al:interspeech2014}{\citename {Kim \bgroup et al.\egroup }2014}
\bibcite{manuvinakurikepair}{\citename {Manuvinakurike and DeVault}2015}
\bibcite{manuvinakurike:reducing}{\citename {Manuvinakurike \bgroup et al.\egroup }2015}
\bibcite{paetzel-racca-devault:2014}{\citename {Paetzel \bgroup et al.\egroup }2014}
\bibcite{platek-jurvcivcek:2014}{\citename {Pl\'{a}tek and Jur\v {c}\'{i}\v {c}ek}2014}
\bibcite{povey-et-al-kaldi:2011}{\citename {Povey \bgroup et al.\egroup }2011}
\bibcite{schlangen-skantze:dnd2011}{\citename {Schlangen and Skantze}2011}
\bibcite{schlangen-baumann-atterer:2009}{\citename {Schlangen \bgroup et al.\egroup }2009}
\bibcite{selfridge-EtAl:2012:SIGDIAL2012}{\citename {Selfridge \bgroup et al.\egroup }2012}
\bibcite{selfridge-EtAl:2013:SIGDIAL}{\citename {Selfridge \bgroup et al.\egroup }2013}
\bibcite{skantze-hjalmarsson:2010:SIGDIAL}{\citename {Skantze and Hjalmarsson}2010}
\bibcite{skantze-schlangen-eacl-numbers:2009}{\citename {Skantze and Schlangen}2009}
\bibcite{ward-devault-aaai:2015}{\citename {Ward and DeVault}2015}
\newlabel{eve-examples}{{5}{10}}
