\relax 
\bibstyle{plainnat}
\bibdata{acl2016}
\@writefile{toc}{\contentsline {section}{\numberline {1}Introduction}{1}}
\newlabel{sec:intro}{{1}{1}}
\@writefile{toc}{\contentsline {section}{\numberline {2}Reference resolution domain}{2}}
\newlabel{sec:domain}{{2}{2}}
\@writefile{toc}{\contentsline {section}{\numberline {3}Data collection}{2}}
\newlabel{sec:datacollection}{{3}{2}}
\@writefile{toc}{\contentsline {subsection}{\numberline {3.1}Lab setting}{2}}
\newlabel{subsec:datalab}{{3.1}{2}}
\@writefile{toc}{\contentsline {subsection}{\numberline {3.2}Web setting}{2}}
\newlabel{subsec:dataweb}{{3.2}{2}}
\@writefile{toc}{\contentsline {section}{\numberline {4}Data}{2}}
\newlabel{sec:data}{{4}{2}}
\@writefile{toc}{\contentsline {section}{\numberline {5}Agent}{2}}
\newlabel{sec:agent}{{5}{2}}
\@writefile{toc}{\contentsline {subsection}{\numberline {5.1}Incremental system architecture}{2}}
\newlabel{subsec:architecture}{{5.1}{2}}
\@writefile{toc}{\contentsline {subsection}{\numberline {5.2}Design considerations}{2}}
\newlabel{subsec:architecture}{{5.2}{2}}
\@writefile{toc}{\contentsline {section}{\numberline {6}Language understanding}{2}}
\newlabel{sec:lu}{{6}{2}}
\@writefile{toc}{\contentsline {section}{\numberline {7}Dialogue management \& policy}{2}}
\newlabel{sec:dmp}{{7}{2}}
\@writefile{toc}{\contentsline {section}{\numberline {8}Evaluation}{2}}
\newlabel{sec:eval}{{8}{2}}
\@writefile{toc}{\contentsline {subsection}{\numberline {8.1}Offline evaluation framework}{2}}
\newlabel{subsec:offlineeval}{{8.1}{2}}
\@writefile{toc}{\contentsline {subsection}{\numberline {8.2}Real user evaluation}{2}}
\newlabel{subsec:usereval}{{8.2}{2}}
\@writefile{toc}{\contentsline {section}{\numberline {9}Enhancing abilities}{2}}
\newlabel{subsec:enhanceabilities}{{9}{2}}
\@writefile{toc}{\contentsline {section}{\numberline {10}Future direction}{2}}
\newlabel{sec:future}{{10}{2}}
